{
    "title": "Jogo Animanomicon - Conhecimento posterior",
    "game": "animanomicon",
    "phase": "POST",
    "questions": [{
            "text": "Qual dessas emoções era a linha mestra do jogo?",
            "question_type": {
                "category": "EMOÇÕES",
                "options": {
                    "1": "Felicidade",
                    "2": "Raiva",
                    "3": "Medo"
                }
            }
        }, {
            "text": "Você sentiu FELICIDADE enquanto jogava?",
            "question_type": {
                "category": "EMOÇÕES",
                "options": {
                    "1": "Não",
                    "2": "Sim, mas não foi muito marcante",
                    "3": "Sim, com intensidade média",
                    "4": "Sim, com muita intensidade"
                }
            }
        }, {
            "text": "Você sentiu MEDO enquanto jogava?",
            "question_type": {
                "category": "EMOÇÕES",
                "options": {
                    "1": "Não",
                    "2": "Sim, mas não foi muito marcante",
                    "3": "Sim, com intensidade média",
                    "4": "Sim, com muita intensidade"
                }
            }
        }, {
            "text": "Você sentiu RAIVA enquanto jogava?",
            "question_type": {
                "category": "EMOÇÕES",
                "options": {
                    "1": "Não",
                    "2": "Sim, mas não foi muito marcante",
                    "3": "Sim, com intensidade média",
                    "4": "Sim, com muita intensidade"
                }
            }
        }, {
            "text": "Qual trecho da narrativa mais lhe marcou?",
            "question_type": {
                "category": "NARRATIVA",
                "options": {}
            }
        }, {
            "text": "O que você achou da história contada? Se fosse escolher uma parte para ser reescrita, qual seria?",
            "question_type": {
                "category": "NARRATIVA",
                "options": {}
            }
        },
        {
            "text": "Quantos princípios éticos foram criados para designers, construtores e usuários de robôs em uma conferência de 2010 na Grã-Bretanha?",
            "question_type": {
                "category": "ETICA",
                "options": {
                    "1": "3",
                    "2": "4",
                    "3": "5",
                    "4": "7",
                    "5": "8"
                }
            }
        },
        {
            "text": "No contexto de inteligência artificial, o que significa o termo destilação de conhecimento (knowledge distillation)?",
            "question_type": {
                "category": "IA",
                "options": {
                    "1": "É uma técnica que permite robôs realizarem tarefas de forma independente, sem precisar de um humano para supervisioná-lo na atividade",
                    "2": "É uma técnica que transfere o aprendizado e conhecimento de uma inteligência artificial complexa (professor) para uma inteligência mais simples (aluno)",
                    "3": "É uma técnica que permite a uma inteligência artificial transferir aprendizados e lições de um problema e aplicá-lo a outros, tranferindo seu conhecimento.",
                    "4": "É uma técnica que permite robôs desenvolverem novos conhecimentos a partir da execução de tarefas e processos repetidas vezes"
                }
            }
        },
        {
            "text": "Assinale a alternativa que NÃO corresponde a um dos princípios éticos de robótica",
            "question_type": {
                "category": "ETICA",
                "options": {
                    "1": "Um robô jamais deve ser criado com o propósito de matar ou prejudicar seres humanos",
                    "2": "Robôs devem ser criados para assegurar sua própria segurança.",
                    "3": "Robôs não devem ser usados para explorar as emoções de seres humanos, ou se assemelhar a seres humanos.",
                    "4": "Deve sempre estar claro quem é o responsável legal por um robô.",
                    "5": "Um robô sempre deve obedecer as ordens de um ser humano."
                }
            }
        },
        {
            "text": "No contexto da computação, o que é um algoritmo genético?",
            "question_type": {
                "category": "IA",
                "options": {}
            }
        },
        {
            "text": "Partindo dos princípios éticos em Robótica, quem é o responsável pelas ações de um robô?",
            "question_type": {
                "category": "ETICA",
                "options": {
                    "1": "O próprio robô",
                    "2": "Seu criador",
                    "3": "O governo",
                    "4": "Deus ou outra entidade cósmica"
                }
            }
        }
    ]
}